RNAseq-R-tidyverse • RNAseqRtidyverse
…
# import sample information
sampleinfo <- read_tsv("https://ndownloader.figshare.com/files/5999832?private_link=1d788fd384d33e913a2a")
#> 
#> ── Column specification ────────────────────────────────────────────────────────
#> cols(
#>   FileName = col_character(),
#>   SampleName = col_character(),
#>   CellType = col_character(),
#>   Status = col_character()
#> )

Take a look at the data.

seqdata
#> # A tibble: 27,179 x 14
#>    EntrezGeneID Length `MCL1-DG_BC2CTUACX… `MCL1-DH_BC2CTUAC… `MCL1-DI_BC2CTUAC…
#>           <dbl>  <dbl>               <dbl>              <dbl>              <dbl>
#>  1       497097   3634                 438                300                 65
#>  2    100503874   3259                   1                  0                  1
#>  3    100038431   1634                   0                  0                  0
#>  4        19888   9747                   1                  1                  0
#>  5        20671   3130                 106                182                 82
#>  6        27395   4203                 309                234                337
#>  7        18777   2433                 652                515                948
#>  8    100503730    799                   0                  1                  0
#>  9        21399   2847                1604               1495               1721
#> 10        58175   2241                   4                  2                 14
#> # … with 27,169 more rows, and 9 more variables:
#> #   MCL1-DJ_BC2CTUACXX_CGATGT_L002_R1 <dbl>,
#> #   MCL1-DK_BC2CTUACXX_TTAGGC_L002_R1 <dbl>,
#> #   MCL1-DL_BC2CTUACXX_ATCACG_L002_R1 <dbl>,
#> #   MCL1-LA_BC2CTUACXX_GATCAG_L001_R1 <dbl>,
#> #   MCL1-LB_BC2CTUACXX_TGACCA_L001_R1 <dbl>,
#> #   MCL1-LC_BC2CTUACXX_GCCAAT_L001_R1 <dbl>,
#> #   MCL1-LD_BC2CTUACXX_GGCTAC_L001_R1 <dbl>,
#> #   MCL1-LE_BC2CTUACXX_TAGCTT_L001_R1 <dbl>,
#> #   MCL1-LF_BC2CTUACXX_CTTGTA_L001_R1 <dbl>

In the seqdata object, the first column contains the Entrez gene identifier, the second column contains the gene length and the rest of the columns contain the gene transcription abundance for each sample. The abundance is the number of reads aligning to the gene in each experimental sample.

Format the data

We first convert the counts into long format (tidy format) so we can join to the sample information and also use with ggplot and other tidyverse functions.

In this workshop we make use of the tidyverse pipe %>%. This ‘pipes’ the output from the command on the left into the command on the right/below. Using the pipe is not essential but it can make the steps clearer and easier to see. For more details on the pipe see here.

counts_long <- seqdata %>% pivot_longer(cols = starts_with("MCL"), names_to = "sample", values_to = "counts")

# take a look
counts_long
#> # A tibble: 326,148 x 4
#>    EntrezGeneID Length sample                            counts
#>           <dbl>  <dbl> <chr>                              <dbl>
#>  1       497097   3634 MCL1-DG_BC2CTUACXX_ACTTGA_L002_R1    438
#>  2       497097   3634 MCL1-DH_BC2CTUACXX_CAGATC_L002_R1    300
#>  3       497097   3634 MCL1-DI_BC2CTUACXX_ACAGTG_L002_R1     65
#>  4       497097   3634 MCL1-DJ_BC2CTUACXX_CGATGT_L002_R1    237
#>  5       497097   3634 MCL1-DK_BC2CTUACXX_TTAGGC_L002_R1    354
#>  6       497097   3634 MCL1-DL_BC2CTUACXX_ATCACG_L002_R1    287
#>  7       497097   3634 MCL1-LA_BC2CTUACXX_GATCAG_L001_R1      0
#>  8       497097   3634 MCL1-LB_BC2CTUACXX_TGACCA_L001_R1      0
#>  9       497097   3634 MCL1-LC_BC2CTUACXX_GCCAAT_L001_R1      0
#> 10       497097   3634 MCL1-LD_BC2CTUACXX_GGCTAC_L001_R1      0
#> # … with 326,138 more rows

We can shorten the sample names to just the relevant information, the first 7 characters.

counts_formatted <- counts_long %>% mutate(sample_name=str_extract(sample, "MCL1-.."))

# take a look
counts_formatted
#> # A tibble: 326,148 x 5
#>    EntrezGeneID Length sample                            counts sample_name
#>           <dbl>  <dbl> <chr>                              <dbl> <chr>      
#>  1       497097   3634 MCL1-DG_BC2CTUACXX_ACTTGA_L002_R1    438 MCL1-DG    
#>  2       497097   3634 MCL1-DH_BC2CTUACXX_CAGATC_L002_R1    300 MCL1-DH    
#>  3       497097   3634 MCL1-DI_BC2CTUACXX_ACAGTG_L002_R1     65 MCL1-DI    
#>  4       497097   3634 MCL1-DJ_BC2CTUACXX_CGATGT_L002_R1    237 MCL1-DJ    
#>  5       497097   3634 MCL1-DK_BC2CTUACXX_TTAGGC_L002_R1    354 MCL1-DK    
#>  6       497097   3634 MCL1-DL_BC2CTUACXX_ATCACG_L002_R1    287 MCL1-DL    
#>  7       497097   3634 MCL1-LA_BC2CTUACXX_GATCAG_L001_R1      0 MCL1-LA    
#>  8       497097   3634 MCL1-LB_BC2CTUACXX_TGACCA_L001_R1      0 MCL1-LB    
#>  9       497097   3634 MCL1-LC_BC2CTUACXX_GCCAAT_L001_R1      0 MCL1-LC    
#> 10       497097   3634 MCL1-LD_BC2CTUACXX_GGCTAC_L001_R1      0 MCL1-LD    
#> # … with 326,138 more rows
…
To the counts table we can add gene symbols.

counts_annotated <- counts_formatted %>%
    
    mutate(symbol = AnnotationDbi::mapIds(org.Mm.eg.db::org.Mm.eg.db, 
                                          keys = as.character(EntrezGeneID), 
                                          keytype = "ENTREZID", 
                                          column="SYMBOL", 
                                          multiVals = "first"))
#> 
#> 'select()' returned 1:1 mapping between keys and columns
# take a look
counts_annotated
#> # A tibble: 326,148 x 6
#>    EntrezGeneID Length sample                          counts sample_name symbol
#>           <dbl>  <dbl> <chr>                            <dbl> <chr>       <chr> 
#>  1       497097   3634 MCL1-DG_BC2CTUACXX_ACTTGA_L002…    438 MCL1-DG     Xkr4  
#>  2       497097   3634 MCL1-DH_BC2CTUACXX_CAGATC_L002…    300 MCL1-DH     Xkr4  
#>  3       497097   3634 MCL1-DI_BC2CTUACXX_ACAGTG_L002…     65 MCL1-DI     Xkr4  
#>  4       497097   3634 MCL1-DJ_BC2CTUACXX_CGATGT_L002…    237 MCL1-DJ     Xkr4  
#>  5       497097   3634 MCL1-DK_BC2CTUACXX_TTAGGC_L002…    354 MCL1-DK     Xkr4  
#>  6       497097   3634 MCL1-DL_BC2CTUACXX_ATCACG_L002…    287 MCL1-DL     Xkr4  
#>  7       497097   3634 MCL1-LA_BC2CTUACXX_GATCAG_L001…      0 MCL1-LA     Xkr4  
#>  8       497097   3634 MCL1-LB_BC2CTUACXX_TGACCA_L001…      0 MCL1-LB     Xkr4  
#>  9       497097   3634 MCL1-LC_BC2CTUACXX_GCCAAT_L001…      0 MCL1-LC     Xkr4  
#> 10       497097   3634 MCL1-LD_BC2CTUACXX_GGCTAC_L001…      0 MCL1-LD     Xkr4  
#> # … with 326,138 more rows

We join the counts and sample information into one table.

counts <- left_join(counts_annotated, sampleinfo_formatted, by = "sample_name")

# take a look
counts
#> # A tibble: 326,148 x 11
#>    EntrezGeneID Length sample    counts sample_name symbol FileName   SampleName
#>           <dbl>  <dbl> <chr>      <dbl> <chr>       <chr>  <chr>      <chr>     
#>  1       497097   3634 MCL1-DG_…    438 MCL1-DG     Xkr4   MCL1.DG_B… MCL1.DG   
#>  2       497097   3634 MCL1-DH_…    300 MCL1-DH     Xkr4   MCL1.DH_B… MCL1.DH   
#>  3       497097   3634 MCL1-DI_…     65 MCL1-DI     Xkr4   MCL1.DI_B… MCL1.DI   
#>  4       497097   3634 MCL1-DJ_…    237 MCL1-DJ     Xkr4   MCL1.DJ_B… MCL1.DJ   
#>  5       497097   3634 MCL1-DK_…    354 MCL1-DK     Xkr4   MCL1.DK_B… MCL1.DK   
#>  6       497097   3634 MCL1-DL_…    287 MCL1-DL     Xkr4   MCL1.DL_B… MCL1.DL   
#>  7       497097   3634 MCL1-LA_…      0 MCL1-LA     Xkr4   MCL1.LA_B… MCL1.LA   
#>  8       497097   3634 MCL1-LB_…      0 MCL1-LB     Xkr4   MCL1.LB_B… MCL1.LB   
#>  9       497097   3634 MCL1-LC_…      0 MCL1-LC     Xkr4   MCL1.LC_B… MCL1.LC   
#> 10       497097   3634 MCL1-LD_…      0 MCL1-LD     Xkr4   MCL1.LD_B… MCL1.LD   
#> # … with 326,138 more rows, and 3 more variables: Group <chr>, CellType <chr>,
#> #   Status <chr>

Convert counts to tidybulk tibble

To perform the RNA sequencing analysis steps, we convert into a tidybulk tibble. A tibble is the tidyverse table format.

counts_tt <- counts %>% 
    # convert ids from numeric to character (text) datatype
    mutate(EntrezGeneID = as.character(EntrezGeneID)) %>%
    
    tidybulk(.sample=sample_name, .transcript=EntrezGeneID, .abundance=counts)

# take a look
counts_tt
#> # A tibble: 326,148 x 11
#>    EntrezGeneID Length sample    counts sample_name symbol FileName   SampleName
#>    <chr>         <dbl> <chr>      <dbl> <chr>       <chr>  <chr>      <chr>     
#>  1 497097         3634 MCL1-DG_…    438 MCL1-DG     Xkr4   MCL1.DG_B… MCL1.DG   
#>  2 497097         3634 MCL1-DH_…    300 MCL1-DH     Xkr4   MCL1.DH_B… MCL1.DH   
#>  3 497097         3634 MCL1-DI_…     65 MCL1-DI     Xkr4   MCL1.DI_B… MCL1.DI   
#>  4 497097         3634 MCL1-DJ_…    237 MCL1-DJ     Xkr4   MCL1.DJ_B… MCL1.DJ   
#>  5 497097         3634 MCL1-DK_…    354 MCL1-DK     Xkr4   MCL1.DK_B… MCL1.DK   
#>  6 497097         3634 MCL1-DL_…    287 MCL1-DL     Xkr4   MCL1.DL_B… MCL1.DL   
#>  7 497097         3634 MCL1-LA_…      0 MCL1-LA     Xkr4   MCL1.LA_B… MCL1.LA   
#>  8 497097         3634 MCL1-LB_…      0 MCL1-LB     Xkr4   MCL1.LB_B… MCL1.LB   
#>  9 497097         3634 MCL1-LC_…      0 MCL1-LC     Xkr4   MCL1.LC_B… MCL1.LC   
#> 10 497097         3634 MCL1-LD_…      0 MCL1-LD     Xkr4   MCL1.LD_B… MCL1.LD   
#> # … with 326,138 more rows, and 3 more variables: Group <chr>, CellType <chr>,
#> #   Status <chr>

Using this tidybulk tibble we can perform differential expression analysis with the tidybulk package.

Filtering lowly expressed genes

Genes with very low counts across all libraries provide little evidence for differential expression and they can interfere with some of the statistical approximations that are used later in the pipeline. They also add to the multiple testing burden when estimating false discovery rates, reducing power to detect differentially expressed genes. These genes should be filtered out prior to further analysis.

We can perform the filtering using tidybulk keep_abundant or identify_abundant. These functions can use the edgeR filterByExpr function described in (Law et al. 2016) to automatically identify the genes with adequate abundance for differential expression testing. By default, this will keep genes with ~10 counts in a minimum number of samples, the number of the samples in the smallest group. In this dataset the smallest group size is two (we have two replicates for each group). Alternatively, we could use identify_abundant to identify which genes are abundant or not (TRUE/FALSE), rather than just keeping the abundant ones.

# Filtering counts
counts_filtered <- counts_tt %>% keep_abundant(factor_of_interest = Group)

# take a look
counts_filtered
#> # A tibble: 191,628 x 12
#>    EntrezGeneID Length sample    counts sample_name symbol FileName   SampleName
#>    <chr>         <dbl> <chr>      <dbl> <chr>       <chr>  <chr>      <chr>     
#>  1 497097         3634 MCL1-DG_…    438 MCL1-DG     Xkr4   MCL1.DG_B… MCL1.DG   
#>  2 497097         3634 MCL1-DH_…    300 MCL1-DH     Xkr4   MCL1.DH_B… MCL1.DH   
#>  3 497097         3634 MCL1-DI_…     65 MCL1-DI     Xkr4   MCL1.DI_B… MCL1.DI   
#>  4 497097         3634 MCL1-DJ_…    237 MCL1-DJ     Xkr4   MCL1.DJ_B… MCL1.DJ   
#>  5 497097         3634 MCL1-DK_…    354 MCL1-DK     Xkr4   MCL1.DK_B… MCL1.DK   
#>  6 497097         3634 MCL1-DL_…    287 MCL1-DL     Xkr4   MCL1.DL_B… MCL1.DL   
#>  7 497097         3634 MCL1-LA_…      0 MCL1-LA     Xkr4   MCL1.LA_B… MCL1.LA   
#>  8 497097         3634 MCL1-LB_…      0 MCL1-LB     Xkr4   MCL1.LB_B… MCL1.LB   
#>  9 497097         3634 MCL1-LC_…      0 MCL1-LC     Xkr4   MCL1.LC_B… MCL1.LC   
#> 10 497097         3634 MCL1-LD_…      0 MCL1-LD     Xkr4   MCL1.LD_B… MCL1.LD   
#> # … with 191,618 more rows, and 4 more variables: Group <chr>, CellType <chr>,
#> #   Status <chr>, .abundant <lgl>
…
Scaling counts to normalise

Scaling of counts, normalisation, is performed to eliminate uninteresting differences between samples due to sequencing depth or composition. A more detailed explanation can be found here. In the tidybulk package the function scale_abundance generates scaled counts, with scaling factors calculated on abundant (filtered) transcripts and applied to all transcripts. We can choose from different normalisation methods. Here we will use the default, edgeR’s trimmed mean of M values (TMM), (Robinson and Oshlack 2010). TMM normalisation (and most scaling normalisation methods) scale relative to one sample.

# Scaling counts
counts_scaled <- counts_filtered %>% scale_abundance()

# take a look
counts_scaled
#> # A tibble: 191,628 x 15
#>    EntrezGeneID Length sample    counts sample_name symbol FileName   SampleName
#>    <chr>         <dbl> <chr>      <dbl> <chr>       <chr>  <chr>      <chr>     
#>  1 497097         3634 MCL1-DG_…    438 MCL1-DG     Xkr4   MCL1.DG_B… MCL1.DG   
#>  2 497097         3634 MCL1-DH_…    300 MCL1-DH     Xkr4   MCL1.DH_B… MCL1.DH   
#>  3 497097         3634 MCL1-DI_…     65 MCL1-DI     Xkr4   MCL1.DI_B… MCL1.DI   
#>  4 497097         3634 MCL1-DJ_…    237 MCL1-DJ     Xkr4   MCL1.DJ_B… MCL1.DJ   
#>  5 497097         3634 MCL1-DK_…    354 MCL1-DK     Xkr4   MCL1.DK_B… MCL1.DK   
#>  6 497097         3634 MCL1-DL_…    287 MCL1-DL     Xkr4   MCL1.DL_B… MCL1.DL   
#>  7 497097         3634 MCL1-LA_…      0 MCL1-LA     Xkr4   MCL1.LA_B… MCL1.LA   
#>  8 497097         3634 MCL1-LB_…      0 MCL1-LB     Xkr4   MCL1.LB_B… MCL1.LB   
#>  9 497097         3634 MCL1-LC_…      0 MCL1-LC     Xkr4   MCL1.LC_B… MCL1.LC   
#> 10 497097         3634 MCL1-LD_…      0 MCL1-LD     Xkr4   MCL1.LD_B… MCL1.LD   
#> # … with 191,618 more rows, and 7 more variables: Group <chr>, CellType <chr>,
#> #   Status <chr>, .abundant <lgl>, TMM <dbl>, multiplier <dbl>,
#> #   counts_scaled <dbl>
…
Dimensionality reduction

By far, one of the most important plots we make when we analyse RNA sequencing data are principal-component analysis (PCA) or multi-dimensional scaling (MDS) plots. We reduce the dimensions of the data to identify the greatest sources of variation in the data. A principal components analysis is an example of an unsupervised analysis, where we don’t need to specify the groups. If your experiment is well controlled and has worked well, what we hope to see is that the greatest sources of variation in the data are the treatments/groups we are interested in. It is also an incredibly useful tool for quality control and checking for outliers. We can use the reduce_dimensions function to calculate the dimensions.

# Get principal components
counts_scal_MDS <-
  counts_scaled %>%
  reduce_dimensions(method = "MDS", scale=FALSE)
#> tidybulk says: to access the raw results do `attr(..., "internals")$MDS`

This joins the result to the counts object.

# Take a look
counts_scal_MDS
#> # A tibble: 191,628 x 17
#>    EntrezGeneID Length sample    counts sample_name symbol FileName   SampleName
#>    <chr>         <dbl> <chr>      <dbl> <chr>       <chr>  <chr>      <chr>     
#>  1 497097         3634 MCL1-DG_…    438 MCL1-DG     Xkr4   MCL1.DG_B… MCL1.DG   
#>  2 497097         3634 MCL1-DH_…    300 MCL1-DH     Xkr4   MCL1.DH_B… MCL1.DH   
#>  3 497097         3634 MCL1-DI_…     65 MCL1-DI     Xkr4   MCL1.DI_B… MCL1.DI   
#>  4 497097         3634 MCL1-DJ_…    237 MCL1-DJ     Xkr4   MCL1.DJ_B… MCL1.DJ   
#>  5 497097         3634 MCL1-DK_…    354 MCL1-DK     Xkr4   MCL1.DK_B… MCL1.DK   
#>  6 497097         3634 MCL1-DL_…    287 MCL1-DL     Xkr4   MCL1.DL_B… MCL1.DL   
#>  7 497097         3634 MCL1-LA_…      0 MCL1-LA     Xkr4   MCL1.LA_B… MCL1.LA   
#>  8 497097         3634 MCL1-LB_…      0 MCL1-LB     Xkr4   MCL1.LB_B… MCL1.LB   
#>  9 497097         3634 MCL1-LC_…      0 MCL1-LC     Xkr4   MCL1.LC_B… MCL1.LC   
#> 10 497097         3634 MCL1-LD_…      0 MCL1-LD     Xkr4   MCL1.LD_B… MCL1.LD   
#> # … with 191,618 more rows, and 9 more variables: Group <chr>, CellType <chr>,
#> #   Status <chr>, .abundant <lgl>, TMM <dbl>, multiplier <dbl>,
#> #   counts_scaled <dbl>, Dim1 <dbl>, Dim2 <dbl>
…
